date	approve	disapprove	dontknow
2001 Dec 14-16	86	11	3
2001 Dec 6-9	86	10	4
2001 Nov 26-27	87	8	5
2001 Nov 8-11	87	9	4
2001 Nov 2-4	87	9	4
2001 Oct 19-21	88	9	3
2001 Oct 11-14	89	8	3
2001 Oct 5-6	87	10	3
2001 Sep 21-22	90	6	4
2001 Sep 14-15	86	10	4
2001 Sep 7-10	51	39	10
2001 Aug 24-26	55	36	9
2001 Aug 16-19	57	34	9
2001 Aug 10-12	57	35	8
2001 Aug 3-5	55	35	10
2001 Jul 19-22	56	33	11
2001 Jul 10-11	57	35	8
2001 Jun 28-Jul 1	52	34	14
2001 Jun 11-17	55	33	12
2001 Jun 8-10	55	35	10
2001 May 18-20	56	36	8
2001 May 10-14	56	31	13
2001 May 7-9	53	33	14
2001 Apr 20-22	62	29	9
2001 Apr 6-8	59	30	11
2001 Mar 26-28	53	29	18
2001 Mar 9-11	58	29	13
2001 Mar 5-7	63	22	15
2001 Feb 19-21	62	21	17
2001 Feb 9-11	57	25	18
2001 Feb 1-4	57	25	18
